{
    "FileName":"GameKitInitializer",
    "Classes":
    [
        {
            "ClassName":"MatchDelegate",
            "Protocol":"GKMatchDelegate",
            "Methods":[
                "- (void)match:(GKMatch *)match player:(GKPlayer *)player didChangeConnectionState:(GKPlayerConnectionState)state;",
                "- (void)match:(GKMatch *)match didFailWithError:(NSError *)error;",
                {
                    "Declaration":"- (void)match:(GKMatch *)match didReceiveData:(NSData *)data fromRemotePlayer:(GKPlayer *)player;,",
                    "Custom":
                    {
                        "ObjCTypedef":"typedef void (*MatchDelegate_match_didReceiveData_fromRemotePlayer)(void* ptr, const void* data, long dataLength, const char* player);",
                        "ObjCImpl":"- (void)match:(GKMatch *)match didReceiveData:(NSData *)data fromRemotePlayer:(GKPlayer *)player;\n{\n    KMatchDelegate_match_didReceiveData_fromRemotePlayer(\n        (__bridge void*) self,\n        [data bytes], [data length],\n        [[player gamePlayerID] UTF8String]\n        );\n}",
                        "CSharpDelegateDef":"public delegate void MatchDelegate_match_didReceiveData_fromRemotePlayer(\n            IntPtr ptr,\n            IntPtr data,\n\t    int dataLength, \n            IntPtr player);",
                        "CSharpStaticCallback":"public static void match_didReceiveData_fromRemotePlayer(\n            IntPtr ptr,\n            IntPtr data,\n\t\t\tint dataLength, \n            IntPtr playerGamePlayerID)\n        {\n            try \n            {\n                var inst = classInstances[ptr.ToInt64()];\n                var dataBytes = new byte[dataLength];\n\t\t\t\tMarshal.Copy(data, dataBytes, 0, (int) dataLength);\n                inst.match_didReceiveData_fromRemotePlayer(\n                    dataBytes,\n                    playerGamePlayerID == IntPtr.Zero ? null : Marshal.PtrToStringAuto(playerGamePlayerID));\n            }\n            catch(Exception ex)\n            {\n                Debug.LogError(ex);\n            }\n        }",
                        "CSharpInstance":"public virtual void match_didReceiveData_fromRemotePlayer(\n            byte[] data,\n            string player)\n        {\n            \n        }",
                    }
                },
                {
                    "Declaration":"- (void)match:(GKMatch *)match didReceiveData:(NSData *)data forRecipient:(GKPlayer *)recipient fromRemotePlayer:(GKPlayer *)player;",
                    "Custom":
                    {
                        "ObjCTypedef":"typedef void (*MatchDelegate_match_didReceiveData_forRecipient_fromRemotePlayer)(void* ptr, const void* data, long dataLength, const char* recipient, const char* player);",
                        "ObjCImpl":"- (void)match:(GKMatch *)match didReceiveData:(NSData *)data forRecipient:(GKPlayer *)recipient fromRemotePlayer:(GKPlayer *)player;\n{\n    KMatchDelegate_match_didReceiveData_forRecipient_fromRemotePlayer(\n        (__bridge void*) self,\n        [data bytes], [data length],\n        [[recipient gamePlayerID] UTF8String],\n        [[player gamePlayerID] UTF8String]\n        );\n}",
                        "CSharpDelegateDef":"public delegate void MatchDelegate_match_didReceiveData_forRecipient_fromRemotePlayer(\n            IntPtr ptr,\n            IntPtr data,\n\t    int dataLength, \n            IntPtr recipient, \n            IntPtr player);",
                        "CSharpStaticCallback":"public static void match_didReceiveData_forRecipient_fromRemotePlayer(\n            IntPtr ptr,\n            IntPtr data,\n            int dataLength, \n            IntPtr recipientGamePlayerID, \n            IntPtr playerGamePlayerID)\n        {\n            try \n            {\n                var inst = classInstances[ptr.ToInt64()];\n                var dataBytes = new byte[dataLength];\n\t\t\t\tMarshal.Copy(data, dataBytes, 0, (int) dataLength);\n                inst.match_didReceiveData_forRecipient_fromRemotePlayer(\n                    dataBytes,\n                    recipientGamePlayerID == IntPtr.Zero ? null : Marshal.PtrToStringAuto(recipientGamePlayerID),\n                    playerGamePlayerID == IntPtr.Zero ? null : Marshal.PtrToStringAuto(playerGamePlayerID));\n            }\n            catch(Exception ex)\n            {\n                Debug.LogError(ex);\n            }\n        }",
                        "CSharpInstance":"public virtual void match_didReceiveData_forRecipient_fromRemotePlayer(\n            byte[] data,\n            string recipientGamePlayerID,\n            string playerGamePlayerID)\n        {\n            \n        }"
                    }
                },
                "- (BOOL)match:(GKMatch *)match shouldReinviteDisconnectedPlayer:(GKPlayer *)player;"
            ],
        },
        {
            "ClassName":"MatchmakerViewControllerDelegate",
            "Protocol":"GKMatchmakerViewControllerDelegate",
            "Methods":[
                "- (void)matchmakerViewController:(GKMatchmakerViewController*)viewController didFindMatch:(GKMatch *)match",
                "- (void)matchmakerViewControllerWasCancelled:(GKMatchmakerViewController*)viewController",
                "- (void)matchmakerViewController:(GKMatchmakerViewController*)viewController didFailWithError:(NSError *)error",
                "- (void)matchmakerViewController:(GKMatchmakerViewController*)viewController hostedPlayerDidAccept:(GKPlayer *)player",
                "- (void)matchmakerViewController:(GKMatchmakerViewController*)viewController didFindHostedPlayers:(NSArray<GKPlayer *> *)players;",
            ],
        },
        {
            "ClassName":"LocalPlayerListener",
            "Protocol":"GKLocalPlayerListener",
            "Methods":[
                "- (void)player:(GKPlayer *)player didAcceptInvite:(GKInvite *)invite",
                "- (void)player:(GKPlayer *)player didReceiveChallenge:(GKChallenge *)challenge;",
                "- (void)player:(GKPlayer *)player wantsToPlayChallenge:(GKChallenge *)challenge;",
                "- (void)player:(GKPlayer *)player issuedChallengeWasCompleted:(GKChallenge *)challenge byFriend:(GKPlayer *)friendPlayer;",
                "- (void)player:(GKPlayer *)player matchEnded:(GKTurnBasedMatch *)match;",
                "- (void)player:(GKPlayer *)player didRequestMatchWithRecipients:(NSArray<GKPlayer *> *)recipientPlayers",
                "- (void)player:(GKPlayer *)player didCompleteChallenge:(GKChallenge *)challenge issuedByFriend:(GKPlayer *)friendPlayer;",
                "- (void)player:(GKPlayer *)player receivedExchangeCancellation:(GKTurnBasedExchange *)exchange forMatch:(GKTurnBasedMatch *)match;",
                "- (void)player:(GKPlayer *)player receivedExchangeReplies:(NSArray<GKTurnBasedExchangeReply *> *)replies forCompletedExchange:(GKTurnBasedExchange *)exchange forMatch:(GKTurnBasedMatch *)match;",
                "- (void)player:(GKPlayer *)player receivedExchangeRequest:(GKTurnBasedExchange *)exchange forMatch:(GKTurnBasedMatch *)match;",
                "- (void)player:(GKPlayer *)player didRequestMatchWithOtherPlayers:(NSArray<GKPlayer *> *)playersToInvite;",
                "- (void)player:(GKPlayer *)player receivedTurnEventForMatch:(GKTurnBasedMatch *)match didBecomeActive:(BOOL)didBecomeActive;",
                "- (void)player:(GKPlayer *)player wantsToQuitMatch:(GKTurnBasedMatch *)match;",
            ],
            "TVOSNO":[
                "- (void)player:(GKPlayer *)player hasConflictingSavedGames:(NSArray<GKSavedGame *> *)savedGames;",
                "- (void)player:(GKPlayer *)player didModifySavedGame:(GKSavedGame *)savedGame;",
            ]
        },
        {
            "ClassName":"ChallengeListener",
            "Protocol":"GKChallengeListener",
            "Methods":[
                "- (void)player:(GKPlayer *)player didReceiveChallenge:(GKChallenge *)challenge;",
                "- (void)player:(GKPlayer *)player wantsToPlayChallenge:(GKChallenge *)challenge;",
                "- (void)player:(GKPlayer *)player didCompleteChallenge:(GKChallenge *)challenge issuedByFriend:(GKPlayer *)friendPlayer;",
                "- (void)player:(GKPlayer *)player issuedChallengeWasCompleted:(GKChallenge *)challenge byFriend:(GKPlayer *)friendPlayer;",
            ],
        },
        {
            "ClassName":"TurnBasedEventListener",
            "Protocol":"GKTurnBasedEventListener",
            "Methods":[
                "- (void)player:(GKPlayer *)player receivedExchangeCancellation:(GKTurnBasedExchange *)exchange forMatch:(GKTurnBasedMatch *)match;",
                "- (void)player:(GKPlayer *)player receivedExchangeReplies:(NSArray<GKTurnBasedExchangeReply *> *)replies forCompletedExchange:(GKTurnBasedExchange *)exchange forMatch:(GKTurnBasedMatch *)match;",
                "- (void)player:(GKPlayer *)player receivedExchangeRequest:(GKTurnBasedExchange *)exchange forMatch:(GKTurnBasedMatch *)match;",
                "- (void)player:(GKPlayer *)player didRequestMatchWithOtherPlayers:(NSArray<GKPlayer *> *)playersToInvite;",
                "- (void)player:(GKPlayer *)player matchEnded:(GKTurnBasedMatch *)match;",
                "- (void)player:(GKPlayer *)player receivedTurnEventForMatch:(GKTurnBasedMatch *)match didBecomeActive:(BOOL)didBecomeActive;",
                "- (void)player:(GKPlayer *)player wantsToQuitMatch:(GKTurnBasedMatch *)match;"
            ]
        },
        {
            "ClassName":"GKTurnBasedMatchmakerViewControllerDelegate",
            "Protocol":"GKTurnBasedMatchmakerViewControllerDelegate",
            "Methods":[
                "- (void)turnBasedMatchmakerViewControllerWasCancelled:(GKTurnBasedMatchmakerViewController *)viewController;",
                "- (void)turnBasedMatchmakerViewController:(GKTurnBasedMatchmakerViewController *)viewController didFailWithError:(NSError *)error;",
            ],
            "Deprecated":[
                "- (void)turnBasedMatchmakerViewController:(GKTurnBasedMatchmakerViewController *)viewController didFindMatch:(GKTurnBasedMatch *)match;",
                "- (void)turnBasedMatchmakerViewController:(GKTurnBasedMatchmakerViewController *)viewController playerQuitForMatch:(GKTurnBasedMatch *)match;"
            ]
        },
        {
            "ClassName":"GKGameCenterControllerDelegate",
            "Protocal":"GKGameCenterControllerDelegate",
            "Methods":[
                "- (void)gameCenterViewControllerDidFinish:(GKGameCenterViewController *)gameCenterViewController;"
            ]
        }
    ]
}
