{
	"ClassName":"GKMatchmaker",
    "Summary":"",
    "ClassMethods":[
        "+ (GKMatchmaker *)sharedMatchmaker;",
    ],
    "InstanceMethods":[
        "- (void)cancel;",
        "- (void)cancelPendingInviteToPlayer:(GKPlayer *)player;",
        "- (void)stopBrowsingForNearbyPlayers;",
        "- (void)finishMatchmakingForMatch:(GKMatch *)match;",
        "- (void)matchForInvite:(GKInvite *)invite completionHandler:(MatchCompletionBlock)completionHandler;",
        "- (void)addPlayersToMatch:(GKMatch *)match matchRequest:(GKMatchRequest *)matchRequest completionHandler:(StaticCompletionBlock)completionHandler;",
        "- (void)findPlayersForHostedRequest:(GKMatchRequest *)request withCompletionHandler:(GKPlayersBlock)completionHandler;",
        "- (void)queryActivityWithCompletionHandler:(QueryActivityBlock)completionHandler;",
        "- (void)queryPlayerGroupActivity:(NSUInteger)playerGroup withCompletionHandler:(QueryActivityBlock)completionHandler;",
        "- (void)findMatchForRequest:(GKMatchRequest *)request withCompletionHandler:(FindMatchForRequestBlock) completionHandler;",
        "- (void)startBrowsingForNearbyPlayersWithHandler:(StartBrowsingForNearbyPlayersBlock)reachableHandler;",
    ]
}
