{
	"ClassName":"GKMatch",
    "Summary":"A peer-to-peer network between a group of devices that are connected to Game Center.",
    "DefaultConstructor":"YES",
    "Imports":[
        "MatchDelegate.h"
    ],
    "InstanceMethods":
    [
        "- (void)disconnect;",
        {
            "Declaration":"- (BOOL)sendDataToAllPlayers;",
            "Custom":{
                "ObjC":{
                    "Header":"bool GKMatch_sendDataToAllPlayers_withDataMode_error(\n    void* ptr,\n    void* buffer,\n    unsigned long length,\n unsigned long dataMode,\n   void** error);",
                    "Body":"bool GKMatch_sendDataToAllPlayers_withDataMode_error(\n    void* ptr,\n    void* buffer,\n    unsigned long length,\n    unsigned long dataMode,\n  void** error\n)\n{\n    GKMatch* match = (__bridge GKMatch*) ptr;\n    NSData* data = [NSData dataWithBytes:buffer length:(NSUInteger)length];\n    NSError* error;\n    BOOL val = [match sendDataToAllPlayers:data withDataMode:(GKMatchSendDataMode)dataMode error:&error];\n    *error = (__bridge_retained void*) anyError;\n   return val;\n}"
                },
                "CSharp":{
                    "Dll":"private static extern bool GKMatch_sendDataToAllPlayers_withDataMode_error(\n            HandleRef ptr,\n            [MarshalAs(UnmanagedType.LPArray, ArraySubType = UnmanagedType.U1, SizeParamIndex = 2)]\n            byte[] bytes,\n            long length,\n            long mode,\n            out IntPtr errorPtr);",
                    "Body":"\t\tpublic bool SendDataToAllPlayers(\n            byte[] bytes,\n            GKMatchSendDataMode mode)\n        {\n            var val = GKMatch_sendDataToAllPlayers_withDataMode_error(\n                Handle,\n                bytes,\n                bytes.Length,\n                (long) mode,\n                out IntPtr errorPtr);\n            if (errorPtr != IntPtr.Zero)\n            {\n                var ex = new Exception(new NSError(errorPtr).LocalizedDescription);\n            }\n            return val;\n        }"
                }
            }
        },
        "- (void)chooseBestHostingPlayerWithCompletionHandler:(GKPlayerBlock)completionHandler;",
        "- (void)rematchWithCompletionHandler:(MatchCompletionBlock)completionHandler;",
        "- (GKVoiceChat *)voiceChatWithName:(NSString *)name;",
        {
            "Declaration":"- (BOOL)sendData:(NSData *)data toPlayers:(NSArray<GKPlayer*>*)players dataMode:(GKMatchSendDataMode)mode error:(NSError*)error;",
            "Custom":{
                "ObjC":{
                    "Header":"bool GKMatch_sendData_toPlayers_dataMode_error(\n    void* ptr,\n    const void* buffer, long dataLength,\n    void* players[],\n\tlong playersCount,\n    long mode,\n    void** error\n    );",
                    "Body":"bool GKMatch_sendData_toPlayers_dataMode_error(\n    void* ptr,\n    const void* buffer, long dataLength,\n    void* players[],\n\tlong playersCount,\n    long mode,\n    void** error\n    )\n{\n    NSError* anyError;\n    GKMatch* iGKMatch = (__bridge GKMatch*) ptr;\n    NSData* data = [NSData dataWithBytes:buffer length:(NSUInteger)dataLength];\n    BOOL val = [iGKMatch sendData:data toPlayers:[Converters BridgedArray:players withCount:playersCount] dataMode:(GKMatchSendDataMode)mode error:&anyError];\n    \n    *error = (__bridge_retained void*) anyError;\n    \n    return val;\n}",
                },
                "CSharp":{
                    "Dll":"private static extern bool GKMatch_sendData_toPlayers_dataMode_error(\n            HandleRef ptr,\n            byte[] data,\n            int dataLength,\n            IntPtr[] players,\n            int playersCount,\n            long mode,\n            out IntPtr errorPtr);",
                    "Body":"        public bool SendDataToPlayers(\n           byte[] data, \n           GKPlayer[] players, \n           GKMatchSendDataMode mode)\n       { \n           var val = GKMatch_sendData_toPlayers_dataMode_error(\n               Handle, \n               data, \n               data.Length,\n               players?.Select(x => HandleRef.ToIntPtr(x.Handle)).ToArray(),\n               players?.Length ?? 0,\n               (long) mode,\n               out var errorPtr);\r\n\n           if(errorPtr != IntPtr.Zero)\n           {\n               var nativeException = new NSError(errorPtr);\n               throw new Exception(nativeException.LocalizedDescription);\n           }\n           \n           return val;\n       }",
                }
            }
        }
    ],
    "Properties":[
        "@property(nonatomic, weak) MatchDelegate* delegate;",
        "@property(nonatomic, readonly) NSUInteger expectedPlayerCount;",
        "@property(nonatomic, readonly) NSArray<GKPlayer *> *players;",
    ],
}
