{
	"ClassName":"GKTurnBasedExchange",
    "Summary":"",
    "InstanceMethods":
    [
        "- (void)cancelWithLocalizableMessageKey:(NSString *)key arguments:(NSArray<NSString *> *)arguments completionHandler:(StaticCompletionBlock)completionHandler;",
    ],
    "Properties":[
        "@property(readonly, nonatomic) NSString *exchangeID;",
        "@property(readonly, nonatomic) NSString *message;",
        "@property(readonly, nonatomic) GKTurnBasedParticipant *sender;",
        "@property(readonly, nonatomic) NSDate *completionDate;",
        "@property(readonly, nonatomic) NSDate *sendDate;",
        "@property(readonly, nonatomic) NSDate *timeoutDate;",
        "@property(readonly, nonatomic) NSArray<GKTurnBasedParticipant*> *recipients;",
        "@property(readonly, nonatomic) NSArray<GKTurnBasedExchangeReply *> *replies;",
        "@property(assign, readonly, nonatomic) GKTurnBasedExchangeStatus status;",
    ],
    "TODO":[
        
        "@property(readonly, nonatomic) NSData *data;",
        "- (void)replyWithLocalizableMessageKey:(NSString *)key arguments:(NSArray<NSString *> *)arguments data:(NSData *)data completionHandler:(void (^)(NSError *error))completionHandler;",
    ],
}
