{
    "EnumName":"GKTurnBasedMatchOutcome",
    "Values":[
        {"name":"None", "value":0},
        {"name":"Quit", "value":1},
        {"name":"Won", "value":2},
        {"name":"Lost", "value":3},
        {"name":"Tied", "value":4},
        {"name":"TimeExpired", "value":5},
        {"name":"First", "value":6},
        {"name":"Second", "value":7},
        {"name":"Third", "value":8},
        {"name":"Fourth", "value":9},
        {"name":"CustomRange","value":16711680}
    ]
}
